Plotting Manhattan Plots
…
The dependent variable term

The P-value

The effect size estimate

Other columns can be included in the data, but for the purpose of this tutorial we will focus on the four necessary columns.

Tutorial Dataset

The dataset we will be using contains regression coefficents and P-values for models evaluating the relationship between the measured levels of metabolites found in the blood and biological measures of interest. A small portion of that dataset is shown below.

plot_data

## # A tibble: 168 x 4
##    response              term          estimate  p.value
##    <chr>                 <chr>            <dbl>    <dbl>
##  1 Body Mass Index       Metabolite 17      0.4 5.74e-52
##  2 Framingham Risk Score Metabolite 17      0.4 4.80e-46
##  3 Age                   Metabolite 09      0.3 1.87e-30
##  4 Female Sex            Metabolite 07      0.6 2.47e-25
##  5 Metabolic Syndrome    Metabolite 17      0.7 1.78e-23
##  6 Female Sex            Metabolite 17     -0.5 3.92e-18
##  7 Age                   Metabolite 07      0.2 2.96e-17
##  8 Framingham Risk Score Metabolite 09      0.2 8.91e-17
##  9 Age                   Metabolite 04      0.2 1.02e-15
## 10 Body Mass Index       Metabolite 14     -0.2 1.47e-13
## #  with 158 more rows
…
